%YAML 1.1
%TAG !u! tag:unity3d.com,2011:
--- !u!21 &2100000
Material:
  serializedVersion: 6
  m_ObjectHideFlags: 0
  m_CorrespondingSourceObject: {fileID: 0}
  m_PrefabInstance: {fileID: 0}
  m_PrefabAsset: {fileID: 0}
  m_Name: ToonWater
  m_Shader: {fileID: 4800000, guid: debb5d55b48eda04da21e1b9cc16283a, type: 3}
  m_ShaderKeywords: 
  m_LightmapFlags: 0
  m_EnableInstancingVariants: 0
  m_DoubleSidedGI: 0
  m_CustomRenderQueue: -1
  stringTagMap: {}
  disabledShaderPasses: []
  m_SavedProperties:
    serializedVersion: 3
    m_TexEnvs:
    - _CameraDepthTexture:
        m_Texture: {fileID: 0}
        m_Scale: {x: 1, y: 1}
        m_Offset: {x: 0, y: 0}
    - _FoamDistortionTexture:
        m_Texture: {fileID: 2800000, guid: c9d197b5867b3644287de7fe3b07921a, type: 3}
        m_Scale: {x: 1, y: 1}
        m_Offset: {x: 0, y: 0}
    - _FoamNoise:
        m_Texture: {fileID: 2800000, guid: 56e82a3daf689be48af98146254f88bf, type: 3}
        m_Scale: {x: 1, y: 1}
        m_Offset: {x: 0, y: 0}
    - _texcoord:
        m_Texture: {fileID: 0}
        m_Scale: {x: 1, y: 1}
        m_Offset: {x: 0, y: 0}
    m_Floats:
    - _ASEOutlineWidth: 0
    - _DepthMaxDistance: 0
    - _FoamDistance: 0.3
    - _FoamDistortionAmount: 0.27
    - _FoamMaxDistance: 1.38
    - _FoamMinDistance: 0.04
    - _Glossiness: 32
    - _NoiseCutoff: 1.2
    - _RimAmount: 0
    - _RimThreshold: 0
    - _UseSpecularHighlights: 1
    - __dirty: 0
    m_Colors:
    - _ASEOutlineColor: {r: 0, g: 0, b: 0, a: 0}
    - _AmbientColor: {r: 0.9, g: 0.9, b: 0.9, a: 1}
    - _DeepWaterColor: {r: 0.5050284, g: 0.7969953, b: 0.9150943, a: 0.7490196}
    - _FoamColor: {r: 0.92941177, g: 1, b: 1, a: 0}
    - _FoamNoiseScroll: {r: -0.03, g: -0.03, b: 0, a: 0}
    - _RimColor: {r: 1, g: 1, b: 1, a: 0}
    - _ShallowWaterColor: {r: 0.32499996, g: 0.807, b: 0.971, a: 0.7254902}
    - _SpecularColor: {r: 0.9, g: 0.9, b: 0.9, a: 1}
