%YAML 1.1
%TAG !u! tag:unity3d.com,2011:
--- !u!78 &1
TagManager:
  serializedVersion: 2
  tags:
  - LegController
  - Floor
  - Spike
  layers:
  - Default
  - TransparentFX
  - Ignore Raycast
  - 
  - Water
  - UI
  - 
  - 
  - PostProcessing
  - Bernardino
  - Joints
  - GroundController
  - Unshadowed
  - Floor
  - Checkpoint
  - Bird
  - IgnoreDefault
  - Terrain
  - IgnoreBernardino
  - IgnoreSelf
  - IgnoreJoints
  - IgnoreTerrain
  - Pumpkins
  - 
  - 
  - 
  - 
  - 
  - 
  - 
  - 
  - 
  m_SortingLayers:
  - name: Default
    uniqueID: 0
    locked: 0
