%YAML 1.1
%TAG !u! tag:unity3d.com,2011:
--- !u!21 &2100000
Material:
  serializedVersion: 6
  m_ObjectHideFlags: 0
  m_CorrespondingSourceObject: {fileID: 0}
  m_PrefabInstance: {fileID: 0}
  m_PrefabAsset: {fileID: 0}
  m_Name: GrassMAT
  m_Shader: {fileID: 4800000, guid: c68f3d922d69bd74292ac750dd3ea635, type: 3}
  m_ShaderKeywords: 
  m_LightmapFlags: 4
  m_EnableInstancingVariants: 0
  m_DoubleSidedGI: 0
  m_CustomRenderQueue: -1
  stringTagMap: {}
  disabledShaderPasses: []
  m_SavedProperties:
    serializedVersion: 3
    m_TexEnvs:
    - _Albedo:
        m_Texture: {fileID: 0}
        m_Scale: {x: 1, y: 1}
        m_Offset: {x: 0, y: 0}
    - _texcoord:
        m_Texture: {fileID: 0}
        m_Scale: {x: 1, y: 1}
        m_Offset: {x: 0, y: 0}
    m_Floats:
    - _ASEOutlineWidth: 0.02
    - _Glossiness: 32
    - _RimAmount: 0
    - _RimThreshold: 0
    - _UseSpecularHighlights: 0
    - __dirty: 0
    m_Colors:
    - _ASEOutlineColor: {r: 0, g: 0, b: 0, a: 0}
    - _AmbientColor: {r: 0.5, g: 0.5, b: 0.5, a: 1}
    - _RimColor: {r: 1, g: 1, b: 1, a: 0}
    - _SpecularColor: {r: 0.9, g: 0.9, b: 0.9, a: 1}
    - _Tint: {r: 0.14509805, g: 0.5764706, b: 0.1764706, a: 0}
